projet-microJS/Eclat/target/tb.vcd
$date
  Sat May  4 19:32:19 2024
$end
$version
  GHDL v0
$end
$timescale
  1 fs
$end
$scope module standard $end
$upscope $end
$scope module std_logic_1164 $end
$upscope $end
$scope module numeric_std $end
$upscope $end
$scope module runtime $end
$upscope $end
$scope module textio $end
$upscope $end
$scope module tb_main $end
$var reg 1 ! tb_run $end
$var reg 1 " tb_argument[0:0] $end
$var reg 1 # tb_result[0:0] $end
$var reg 1 $ tb_rdy[0:0] $end
$var reg 1 % tb_clk $end
$var reg 1 & rst $end
$scope module u1 $end
$var reg 1 ' clk $end
$var reg 1 ( reset $end
$var reg 1 ) run $end
$var reg 1 * rdy[0:0] $end
$var reg 1 + argument[0:0] $end
$var reg 1 , result[0:0] $end
$comment \state\ is not handled $end
$comment state_var2261 is not handled $end
$comment state_var2260 is not handled $end
$comment state_var2259 is not handled $end
$comment state_var2258 is not handled $end
$comment arr1643 is not handled $end
$var reg 68 - \$arr1643_value\[0:67] $end
$var integer 32 . \$arr1643_ptr\ $end
$var integer 32 / \$arr1643_ptr_write\ $end
$var reg 68 0 \$arr1643_write\[0:67] $end
$var reg 1 1 \$arr1643_write_request\ $end
$comment arr1644 is not handled $end
$var reg 68 2 \$arr1644_value\[0:67] $end
$var integer 32 3 \$arr1644_ptr\ $end
$var integer 32 4 \$arr1644_ptr_write\ $end
$var reg 68 5 \$arr1644_write\[0:67] $end
$var reg 1 6 \$arr1644_write_request\ $end
$comment arr1645 is not handled $end
$var reg 68 7 \$arr1645_value\[0:67] $end
$var integer 32 8 \$arr1645_ptr\ $end
$var integer 32 9 \$arr1645_ptr_write\ $end
$var reg 68 : \$arr1645_write\[0:67] $end
$var reg 1 ; \$arr1645_write_request\ $end
$comment arr1646 is not handled $end
$var reg 72 < \$arr1646_value\[0:71] $end
$var integer 32 = \$arr1646_ptr\ $end
$var integer 32 > \$arr1646_ptr_write\ $end
$var reg 72 ? \$arr1646_write\[0:71] $end
$var reg 1 @ \$arr1646_write_request\ $end
$comment arr1647 is not handled $end
$var reg 128 A \$arr1647_value\[0:127] $end
$var integer 32 B \$arr1647_ptr\ $end
$var integer 32 C \$arr1647_ptr_write\ $end
$var reg 128 D \$arr1647_write\[0:127] $end
$var reg 1 E \$arr1647_write_request\ $end
$upscope $end
$upscope $end
$enddefinitions $end
#0
0!
bU "
bU #
bU $
1%
1&
1'
1(
0)
bU *
bU +
bU ,
bUUUUUUUUUUUUUUUUUUUUUUUUUUUUUUUUUUUUUUUUUUUUUUUUUUUUUUUUUUUUUUUUUUUU -
b0 .
b0 /
bUUUUUUUUUUUUUUUUUUUUUUUUUUUUUUUUUUUUUUUUUUUUUUUUUUUUUUUUUUUUUUUUUUUU 0
01
bUUUUUUUUUUUUUUUUUUUUUUUUUUUUUUUUUUUUUUUUUUUUUUUUUUUUUUUUUUUUUUUUUUUU 2
b0 3
b0 4
bUUUUUUUUUUUUUUUUUUUUUUUUUUUUUUUUUUUUUUUUUUUUUUUUUUUUUUUUUUUUUUUUUUUU 5
06
bUUUUUUUUUUUUUUUUUUUUUUUUUUUUUUUUUUUUUUUUUUUUUUUUUUUUUUUUUUUUUUUUUUUU 7
b0 8
b0 9
bUUUUUUUUUUUUUUUUUUUUUUUUUUUUUUUUUUUUUUUUUUUUUUUUUUUUUUUUUUUUUUUUUUUU :
0;
bUUUUUUUUUUUUUUUUUUUUUUUUUUUUUUUUUUUUUUUUUUUUUUUUUUUUUUUUUUUUUUUUUUUUUUUU <
b0 =
b0 >
bUUUUUUUUUUUUUUUUUUUUUUUUUUUUUUUUUUUUUUUUUUUUUUUUUUUUUUUUUUUUUUUUUUUUUUUU ?
0@
bUUUUUUUUUUUUUUUUUUUUUUUUUUUUUUUUUUUUUUUUUUUUUUUUUUUUUUUUUUUUUUUUUUUUUUUUUUUUUUUUUUUUUUUUUUUUUUUUUUUUUUUUUUUUUUUUUUUUUUUUUUUUUUUU A
b0 B
b0 C
bUUUUUUUUUUUUUUUUUUUUUUUUUUUUUUUUUUUUUUUUUUUUUUUUUUUUUUUUUUUUUUUUUUUUUUUUUUUUUUUUUUUUUUUUUUUUUUUUUUUUUUUUUUUUUUUUUUUUUUUUUUUUUUUU D
0E
#2000000
0&
0(
#5000000
0%
0'
#10000000
1!
b1 "
b1 #
b1 $
1%
1'
1)
b1 *
b1 +
b1 ,
b00000000000000000000000000000000000000000000000000000000000000000000 -
b00000000000000000000000000000000000000000000000000000000000000000000 2
b00000000000000000000000000000000000000000000000000000000000000000000 7
b000000000000000000000000000000000000000000000000000000000000000000000000 <
b000010000000000000000000000000000000000000000000000000000000000000000000 ?
1@
b00000000000000000000000000000000000000000000000000000000000000000000000000000000000000000000000000000000000000000000000000000000 A
#15000000
0%
0'
#20000000
1%
1'
0@
#25000000
0%
0'
#30000000
1%
1'
b000010000000000000000000000000000000000000000000000000000000000000000000 <
b1 >
b101000000000000000000000000000001001000000000000000000000000000000000000 ?
1@
#35000000
0%
0'
#40000000
1%
1'
0@
#45000000
0%
0'
#50000000
1%
1'
b10 >
b010000000000000000000000000000000001000000000000000000000000000000000000 ?
1@
#55000000
0%
0'
#60000000
1%
1'
0@
#65000000
0%
0'
#70000000
1%
1'
b11 >
b010000000000000000000000000000000000000000000000000000000000000000000000 ?
1@
#75000000
0%
0'
#80000000
1%
1'
0@
#85000000
0%
0'
#90000000
1%
1'
b100 >
b010100110000100000000000000000000000000000000000000000000000000000000000 ?
1@
#95000000
0%
0'
#100000000
1%
1'
0@
#105000000
0%
0'
#110000000
1%
1'
b101 >
b100000000000000000000000000000000010000000000000000000000000000000000000 ?
1@
#115000000
0%
0'
#120000000
1%
1'
0@
#125000000
0%
0'
#130000000
1%
1'
b110 >
b100110000000000000000000000000000000000000000000000000000000000000000000 ?
1@
#135000000
0%
0'
#140000000
1%
1'
0@
#145000000
0%
0'
#150000000
1%
1'
b111 >
b010100101000000000000000000000000000000000000000000000000000000000000000 ?
1@
#155000000
0%
0'
#160000000
1%
1'
0@
#165000000
0%
0'
#170000000
1%
1'
b1000 >
b100110000000000000000000000000000000000000000000000000000000000000000000 ?
1@
#175000000
0%
0'
#180000000
1%
1'
0@
#185000000
0%
0'
#190000000
1%
1'
b1001 >
b011000000000000000000000000000000010000000000000000000000000000000000000 ?
1@
#195000000
0%
0'
#200000000
1%
1'
0@
#205000000
0%
0'
#210000000
1%
1'
b1010 >
b000100000000000000000000000000000000000000000000000000000000000000000000 ?
1@
#215000000
0%
0'
#220000000
1%
1'
0@
#225000000
0%
0'
#230000000
1%
1'
b1011 >
b010100010000000000000000000000000000001000000000000000000000000000000000 ?
1@
#235000000
0%
0'
#240000000
1%
1'
0@
#245000000
0%
0'
#250000000
1%
1'
b1100 >
b010100010000000000000000000000000000000100000000000000000000000000000000 ?
1@
#255000000
0%
0'
#260000000
1%
1'
0@
#265000000
0%
0'
#270000000
1%
1'
b1101 >
b001000000000000000000000000000000000000000000000000000000000000000000000 ?
1@
#275000000
0%
0'
#280000000
1%
1'
0@
#285000000
0%
0'
#290000000
1%
1'
b1110 >
b100000000000000000000000000000000010000000000000000000000000000000000000 ?
1@
#295000000
0%
0'
#300000000
1%
1'
0@
#305000000
0%
0'
#310000000
1%
1'
b1111 >
b011110000000000000000000000000000000000000000000000000000000000000000000 ?
1@
#315000000
0%
0'
#320000000
1%
1'
0@
#325000000
0%
0'
#330000000
1%
1'
#335000000
0%
0'
#340000000
1%
1'
#345000000
0%
0'
#350000000
1%
1'
#355000000
0%
0'
#360000000
1%
1'
b1 =
#365000000
0%
0'
#370000000
1%
1'
b101000000000000000000000000000001001000000000000000000000000000000000000 <
#375000000
0%
0'
#380000000
1%
1'
#385000000
0%
0'
#390000000
1%
1'
b1001 =
#395000000
0%
0'
#400000000
1%
1'
b011000000000000000000000000000000010000000000000000000000000000000000000 <
#405000000
0%
0'
#410000000
1%
1'
b01000000000000000000000000000000001000000000000000000000000000000000 5
16
#415000000
0%
0'
#420000000
1%
1'
06
#425000000
0%
0'
#430000000
1%
1'
b01000000000000000000000000000000001000000000000000000000000000000000 2
#435000000
0%
0'
#440000000
1%
1'
b1010 =
#445000000
0%
0'
#450000000
1%
1'
b000100000000000000000000000000000000000000000000000000000000000000000000 <
#455000000
0%
0'
#460000000
1%
1'
#465000000
0%
0'
#470000000
1%
1'
#475000000
0%
0'
#480000000
1%
1'
b01000000000000000000000000000000001000000000000000000000000000000000 :
1;
#485000000
0%
0'
#490000000
1%
1'
0;
#495000000
0%
0'
#500000000
1%
1'
b01000000000000000000000000000000001000000000000000000000000000000000 7
#505000000
0%
0'
#510000000
1%
1'
b1011 =
#515000000
0%
0'
#520000000
1%
1'
b010100010000000000000000000000000000001000000000000000000000000000000000 <
#525000000
0%
0'
#530000000
1%
1'
b00010000000000000000000000000000001000000000000000000000000000000000 5
16
#535000000
0%
0'
#540000000
1%
1'
06
#545000000
0%
0'
#550000000
1%
1'
b00010000000000000000000000000000001000000000000000000000000000000000 2
#555000000
0%
0'
#560000000
1%
1'
b1100 =
#565000000
0%
0'
#570000000
1%
1'
b010100010000000000000000000000000000000100000000000000000000000000000000 <
#575000000
0%
0'
#580000000
1%
1'
b1 4
b00010000000000000000000000000000000100000000000000000000000000000000 5
16
#585000000
0%
0'
#590000000
1%
1'
06
#595000000
0%
0'
#600000000
1%
1'
#605000000
0%
0'
#610000000
1%
1'
b1101 =
#615000000
0%
0'
#620000000
1%
1'
b001000000000000000000000000000000000000000000000000000000000000000000000 <
#625000000
0%
0'
#630000000
1%
1'
#635000000
0%
0'
#640000000
1%
1'
#645000000
0%
0'
#650000000
1%
1'
b10 4
b01000000000000000000000000000000001000000000000000000000000000000000 5
16
#655000000
0%
0'
#660000000
1%
1'
06
#665000000
0%
0'
#670000000
1%
1'
#675000000
0%
0'
#680000000
1%
1'
b1110 =
#685000000
0%
0'
#690000000
1%
1'
b100000000000000000000000000000000010000000000000000000000000000000000000 <
#695000000
0%
0'
#700000000
1%
1'
b10 3
#705000000
0%
0'
#710000000
1%
1'
b01000000000000000000000000000000001000000000000000000000000000000000 2
#715000000
0%
0'
#720000000
1%
1'
b10 /
b00010000000000000000000000000000000000000000000000000000000000000000 0
11
#725000000
0%
0'
#730000000
1%
1'
01
#735000000
0%
0'
#740000000
1%
1'
#745000000
0%
0'
#750000000
1%
1'
b0 3
#755000000
0%
0'
#760000000
1%
1'
b00010000000000000000000000000000001000000000000000000000000000000000 2
#765000000
0%
0'
#770000000
1%
1'
b0 /
b00010000000000000000000000000000001000000000000000000000000000000000 0
11
#775000000
0%
0'
#780000000
1%
1'
01
#785000000
0%
0'
#790000000
1%
1'
b00010000000000000000000000000000001000000000000000000000000000000000 -
#795000000
0%
0'
#800000000
1%
1'
#805000000
0%
0'
#810000000
1%
1'
#815000000
0%
0'
#820000000
1%
1'
b1 3
#825000000
0%
0'
#830000000
1%
1'
b00010000000000000000000000000000000100000000000000000000000000000000 2
#835000000
0%
0'
#840000000
1%
1'
b1 /
b00010000000000000000000000000000000100000000000000000000000000000000 0
11
#845000000
0%
0'
#850000000
1%
1'
01
#855000000
0%
0'
#860000000
1%
1'
#865000000
0%
0'
#870000000
1%
1'
#875000000
0%
0'
#880000000
1%
1'
#885000000
0%
0'
#890000000
1%
1'
b00000000000000000000000000000000000000000000000000000000000000000000000000000000000000000000111000000000000000000000000000000000 D
1E
#895000000
0%
0'
#900000000
1%
1'
0E
#905000000
0%
0'
#910000000
1%
1'
b00000000000000000000000000000000000000000000000000000000000000000000000000000000000000000000111000000000000000000000000000000000 A
b1 C
1E
#915000000
0%
0'
#920000000
1%
1'
0E
#925000000
0%
0'
#930000000
1%
1'
#935000000
0%
0'
#940000000
1%
1'
b10 =
#945000000
0%
0'
#950000000
1%
1'
b010000000000000000000000000000000001000000000000000000000000000000000000 <
#955000000
0%
0'
#960000000
1%
1'
b1 .
#965000000
0%
0'
#970000000
1%
1'
b00010000000000000000000000000000000100000000000000000000000000000000 -
#975000000
0%
0'
#980000000
1%
1'
#985000000
0%
0'
#990000000
1%
1'
#995000000
0%
0'
#1000000000
1%
1'
b0 4
b00010000000000000000000000000000000100000000000000000000000000000000 5
16
#1005000000
0%
0'
#1010000000
1%
1'
06
#1015000000
0%
0'
#1020000000
1%
1'
#1025000000
0%
0'
#1030000000
1%
1'
b11 =
#1035000000
0%
0'
#1040000000
1%
1'
b010000000000000000000000000000000000000000000000000000000000000000000000 <
#1045000000
0%
0'
#1050000000
1%
1'
b0 .
#1055000000
0%
0'
#1060000000
1%
1'
b00010000000000000000000000000000001000000000000000000000000000000000 -
#1065000000
0%
0'
#1070000000
1%
1'
#1075000000
0%
0'
#1080000000
1%
1'
#1085000000
0%
0'
#1090000000
1%
1'
b1 4
b00010000000000000000000000000000001000000000000000000000000000000000 5
16
#1095000000
0%
0'
#1100000000
1%
1'
06
#1105000000
0%
0'
#1110000000
1%
1'
b00010000000000000000000000000000001000000000000000000000000000000000 2
#1115000000
0%
0'
#1120000000
1%
1'
b100 =
#1125000000
0%
0'
#1130000000
1%
1'
b010100110000100000000000000000000000000000000000000000000000000000000000 <
#1135000000
0%
0'
#1140000000
1%
1'
b10 4
b00110000100000000000000000000000000000000000000000000000000000000000 5
16
#1145000000
0%
0'
#1150000000
1%
1'
06
#1155000000
0%
0'
#1160000000
1%
1'
#1165000000
0%
0'
#1170000000
1%
1'
b101 =
#1175000000
0%
0'
#1180000000
1%
1'
b100000000000000000000000000000000010000000000000000000000000000000000000 <
#1185000000
0%
0'
#1190000000
1%
1'
b10 3
#1195000000
0%
0'
#1200000000
1%
1'
b00110000100000000000000000000000000000000000000000000000000000000000 2
#1205000000
0%
0'
#1210000000
1%
1'
#1215000000
0%
0'
#1220000000
1%
1'
b0 3
#1225000000
0%
0'
#1230000000
1%
1'
b00010000000000000000000000000000000100000000000000000000000000000000 2
#1235000000
0%
0'
#1240000000
1%
1'
#1245000000
0%
0'
#1250000000
1%
1'
b1 3
#1255000000
0%
0'
#1260000000
1%
1'
b00010000000000000000000000000000001000000000000000000000000000000000 2
#1265000000
0%
0'
#1270000000
1%
1'
#1275000000
0%
0'
#1280000000
1%
1'
b0 4
b00010000000000000000000000000000001100000000000000000000000000000000 5
16
#1285000000
0%
0'
#1290000000
1%
1'
06
#1295000000
0%
0'
#1300000000
1%
1'
#1305000000
0%
0'
#1310000000
1%
1'
b110 =
#1315000000
0%
0'
#1320000000
1%
1'
b100110000000000000000000000000000000000000000000000000000000000000000000 <
#1325000000
0%
0'
#1330000000
1%
1'
b0 3
#1335000000
0%
0'
#1340000000
1%
1'
b00010000000000000000000000000000001100000000000000000000000000000000 2
#1345000000
0%
0'
#1350000000
1%
1'
#1355000000
0%
0'
#1360000000
1%
1'
#1365000000
0%
0'
#1370000000
1%
1'
16
#1375000000
0%
0'
#1380000000
1%
1'
06
#1385000000
0%
0'
#1390000000
1%
1'
#1395000000
0%
0'
#1400000000
1%
1'
b1111 =
#1405000000
0%
0'
#1410000000
1%
1'
b011110000000000000000000000000000000000000000000000000000000000000000000 <
#1415000000
0%
0'
#1420000000
1%
1'
#1425000000
0%
0'
#1430000000
1%
1'
#1435000000
0%
0'
#1440000000
1%
1'
#1445000000
0%
0'
#1450000000
1%
1'
#1455000000
0%
0'
#1460000000
1%
1'
b0 =
#1465000000
0%
0'
#1470000000
1%
1'
b000010000000000000000000000000000000000000000000000000000000000000000000 <
#1475000000
0%
0'
#1480000000
1%
1'
#1485000000
0%
0'
#1490000000
1%
1'
b1 =
#1495000000
0%
0'
#1500000000
1%
1'
b101000000000000000000000000000001001000000000000000000000000000000000000 <
#1505000000
0%
0'
#1510000000
1%
1'
#1515000000
0%
0'
#1520000000
1%
1'
b1001 =
#1525000000
0%
0'
#1530000000
1%
1'
b011000000000000000000000000000000010000000000000000000000000000000000000 <
#1535000000
0%
0'
#1540000000
1%
1'
b01000000000000000000000000000000001000000000000000000000000000000000 5
16
#1545000000
0%
0'
#1550000000
1%
1'
06
#1555000000
0%
0'
#1560000000
1%
1'
b01000000000000000000000000000000001000000000000000000000000000000000 2
#1565000000
0%
0'
#1570000000
1%
1'
b1010 =
#1575000000
0%
0'
#1580000000
1%
1'
b000100000000000000000000000000000000000000000000000000000000000000000000 <
#1585000000
0%
0'
#1590000000
1%
1'
#1595000000
0%
0'
#1600000000
1%
1'
#1605000000
0%
0'
#1610000000
1%
1'
1;
#1615000000
0%
0'
#1620000000
1%
1'
0;
#1625000000
0%
0'
#1630000000
1%
1'
#1635000000
0%
0'
#1640000000
1%
1'
b1011 =
#1645000000
0%
0'
#1650000000
1%
1'
b010100010000000000000000000000000000001000000000000000000000000000000000 <
#1655000000
0%
0'
#1660000000
1%
1'
b00010000000000000000000000000000001000000000000000000000000000000000 5
16
#1665000000
0%
0'
#1670000000
1%
1'
06
#1675000000
0%
0'
#1680000000
1%
1'
b00010000000000000000000000000000001000000000000000000000000000000000 2
#1685000000
0%
0'
#1690000000
1%
1'
b1100 =
#1695000000
0%
0'
#1700000000
1%
1'
b010100010000000000000000000000000000000100000000000000000000000000000000 <
#1705000000
0%
0'
#1710000000
1%
1'
b1 4
b00010000000000000000000000000000000100000000000000000000000000000000 5
16
#1715000000
0%
0'
#1720000000
1%
1'
06
#1725000000
0%
0'
#1730000000
1%
1'
#1735000000
0%
0'
#1740000000
1%
1'
b1101 =
#1745000000
0%
0'
#1750000000
1%
1'
b001000000000000000000000000000000000000000000000000000000000000000000000 <
#1755000000
0%
0'
#1760000000
1%
1'
#1765000000
0%
0'
#1770000000
1%
1'
#1775000000
0%
0'
#1780000000
1%
1'
b10 4
b01000000000000000000000000000000001000000000000000000000000000000000 5
16
#1785000000
0%
0'
#1790000000
1%
1'
06
#1795000000
0%
0'
#1800000000
1%
1'
#1805000000
0%
0'
#1810000000
1%
1'
b1110 =
#1815000000
0%
0'
#1820000000
1%
1'
b100000000000000000000000000000000010000000000000000000000000000000000000 <
#1825000000
0%
0'
#1830000000
1%
1'
b10 3
#1835000000
0%
0'
#1840000000
1%
1'
b01000000000000000000000000000000001000000000000000000000000000000000 2
#1845000000
0%
0'
#1850000000
1%
1'
b10 /
b00010000000000000000000000000000000000000000000000000000000000000000 0
11
#1855000000
0%
0'
#1860000000
1%
1'
01
#1865000000
0%
0'
#1870000000
1%
1'
#1875000000
0%
0'
#1880000000
1%
1'
b0 3
#1885000000
0%
0'
#1890000000
1%
1'
b00010000000000000000000000000000001000000000000000000000000000000000 2
#1895000000
0%
0'
#1900000000
1%
1'
b0 /
b00010000000000000000000000000000001000000000000000000000000000000000 0
11
#1905000000
0%
0'
#1910000000
1%
1'
01
#1915000000
0%
0'
#1920000000
1%
1'
#1925000000
0%
0'
#1930000000
1%
1'
#1935000000
0%
0'
#1940000000
1%
1'
#1945000000
0%
0'
#1950000000
1%
1'
b1 3
#1955000000
0%
0'
#1960000000
1%
1'
b00010000000000000000000000000000000100000000000000000000000000000000 2
#1965000000
0%
0'
#1970000000
1%
1'
b1 /
b00010000000000000000000000000000000100000000000000000000000000000000 0
11
#1975000000
0%
0'
#1980000000
1%
1'
01
#1985000000
0%
0'
#1990000000
1%
1'
#1995000000
0%
0'
#2000000000
1%
1'
#2005000000
0%
0'
#2010000000
1%
1'
#2015000000
0%
0'
#2020000000
1%
1'
b0 C
1E
#2025000000
0%
0'
#2030000000
1%
1'
0E
#2035000000
0%
0'
#2040000000
1%
1'
b1 C
1E
#2045000000
0%
0'
#2050000000
1%
1'
0E
#2055000000
0%
0'
#2060000000
1%
1'
#2065000000
0%
0'
#2070000000
1%
1'
b10 =
#2075000000
0%
0'
#2080000000
1%
1'
b010000000000000000000000000000000001000000000000000000000000000000000000 <
#2085000000
0%
0'
#2090000000
1%
1'
b1 .
#2095000000
0%
0'
#2100000000
1%
1'
b00010000000000000000000000000000000100000000000000000000000000000000 -
#2105000000
0%
0'
#2110000000
1%
1'
#2115000000
0%
0'
#2120000000
1%
1'
#2125000000
0%
0'
#2130000000
1%
1'
b0 4
b00010000000000000000000000000000000100000000000000000000000000000000 5
16
#2135000000
0%
0'
#2140000000
1%
1'
06
#2145000000
0%
0'
#2150000000
1%
1'
#2155000000
0%
0'
#2160000000
1%
1'
b11 =
#2165000000
0%
0'
#2170000000
1%
1'
b010000000000000000000000000000000000000000000000000000000000000000000000 <
#2175000000
0%
0'
#2180000000
1%
1'
b0 .
#2185000000
0%
0'
#2190000000
1%
1'
b00010000000000000000000000000000001000000000000000000000000000000000 -
#2195000000
0%
0'
#2200000000
1%
1'
#2205000000
0%
0'
#2210000000
1%
1'
#2215000000
0%
0'
#2220000000
1%
1'
b1 4
b00010000000000000000000000000000001000000000000000000000000000000000 5
16
#2225000000
0%
0'
#2230000000
1%
1'
06
#2235000000
0%
0'
#2240000000
1%
1'
b00010000000000000000000000000000001000000000000000000000000000000000 2
#2245000000
0%
0'
#2250000000
1%
1'
b100 =
#2255000000
0%
0'
#2260000000
1%
1'
b010100110000100000000000000000000000000000000000000000000000000000000000 <
#2265000000
0%
0'
#2270000000
1%
1'
b10 4
b00110000100000000000000000000000000000000000000000000000000000000000 5
16
#2275000000
0%
0'
#2280000000
1%
1'
06
#2285000000
0%
0'
#2290000000
1%
1'
#2295000000
0%
0'
#2300000000
1%
1'
b101 =
#2305000000
0%
0'
#2310000000
1%
1'
b100000000000000000000000000000000010000000000000000000000000000000000000 <
#2315000000
0%
0'
#2320000000
1%
1'
b10 3
#2325000000
0%
0'
#2330000000
1%
1'
b00110000100000000000000000000000000000000000000000000000000000000000 2
#2335000000
0%
0'
#2340000000
1%
1'
#2345000000
0%
0'
#2350000000
1%
1'
b0 3
#2355000000
0%
0'
#2360000000
1%
1'
b00010000000000000000000000000000000100000000000000000000000000000000 2
#2365000000
0%
0'
#2370000000
1%
1'
#2375000000
0%
0'
#2380000000
1%
1'
b1 3
#2385000000
0%
0'
#2390000000
1%
1'
b00010000000000000000000000000000001000000000000000000000000000000000 2
#2395000000
0%
0'
#2400000000
1%
1'
#2405000000
0%
0'
#2410000000
1%
1'
b0 4
b00010000000000000000000000000000001100000000000000000000000000000000 5
16
#2415000000
0%
0'
#2420000000
1%
1'
06
#2425000000
0%
0'
#2430000000
1%
1'
#2435000000
0%
0'
#2440000000
1%
1'
b110 =
#2445000000
0%
0'
#2450000000
1%
1'
b100110000000000000000000000000000000000000000000000000000000000000000000 <
#2455000000
0%
0'
#2460000000
1%
1'
b0 3
#2465000000
0%
0'
#2470000000
1%
1'
b00010000000000000000000000000000001100000000000000000000000000000000 2
#2475000000
0%
0'
#2480000000
1%
1'
#2485000000
0%
0'
#2490000000
1%
1'
#2495000000
0%
0'
#2500000000
1%
1'
16
#2505000000
0%
0'
#2510000000
1%
1'
06
#2515000000
0%
0'
#2520000000
1%
1'
#2525000000
0%
0'
#2530000000
1%
1'
b1111 =
#2535000000
0%
0'
#2540000000
1%
1'
b011110000000000000000000000000000000000000000000000000000000000000000000 <
#2545000000
0%
0'
#2550000000
1%
1'
#2555000000
0%
0'
#2560000000
1%
1'
#2565000000
0%
0'
#2570000000
1%
1'
#2575000000
0%
0'
#2580000000
1%
1'
#2585000000
0%
0'
#2590000000
1%
1'
b0 =
#2595000000
0%
0'
#2600000000
1%
1'
b000010000000000000000000000000000000000000000000000000000000000000000000 <
#2605000000
0%
0'
#2610000000
1%
1'
#2615000000
0%
0'
#2620000000
1%
1'
b1 =
#2625000000
0%
0'
#2630000000
1%
1'
b101000000000000000000000000000001001000000000000000000000000000000000000 <
#2635000000
0%
0'
#2640000000
1%
1'
#2645000000
0%
0'
#2650000000
1%
1'
b1001 =
#2655000000
0%
0'
#2660000000
1%
1'
b011000000000000000000000000000000010000000000000000000000000000000000000 <
#2665000000
0%
0'
#2670000000
1%
1'
b01000000000000000000000000000000001000000000000000000000000000000000 5
16
#2675000000
0%
0'
#2680000000
1%
1'
06
#2685000000
0%
0'
#2690000000
1%
1'
b01000000000000000000000000000000001000000000000000000000000000000000 2
#2695000000
0%
0'
#2700000000
1%
1'
b1010 =
#2705000000
0%
0'
#2710000000
1%
1'
b000100000000000000000000000000000000000000000000000000000000000000000000 <
#2715000000
0%
0'
#2720000000
1%
1'
#2725000000
0%
0'
#2730000000
1%
1'
#2735000000
0%
0'
#2740000000
1%
1'
1;
#2745000000
0%
0'
#2750000000
1%
1'
0;
#2755000000
0%
0'
#2760000000
1%
1'
#2765000000
0%
0'
#2770000000
1%
1'
b1011 =
#2775000000
0%
0'
#2780000000
1%
1'
b010100010000000000000000000000000000001000000000000000000000000000000000 <
#2785000000
0%
0'
#2790000000
1%
1'
b00010000000000000000000000000000001000000000000000000000000000000000 5
16
#2795000000
0%
0'
#2800000000
1%
1'
06
#2805000000
0%
0'
#2810000000
1%
1'
b00010000000000000000000000000000001000000000000000000000000000000000 2
#2815000000
0%
0'
#2820000000
1%
1'
b1100 =
#2825000000
0%
0'
#2830000000
1%
1'
b010100010000000000000000000000000000000100000000000000000000000000000000 <
#2835000000
0%
0'
#2840000000
1%
1'
b1 4
b00010000000000000000000000000000000100000000000000000000000000000000 5
16
#2845000000
0%
0'
#2850000000
1%
1'
06
#2855000000
0%
0'
#2860000000
1%
1'
#2865000000
0%
0'
#2870000000
1%
1'
b1101 =
#2875000000
0%
0'
#2880000000
1%
1'
b001000000000000000000000000000000000000000000000000000000000000000000000 <
#2885000000
0%
0'
#2890000000
1%
1'
#2895000000
0%
0'
#2900000000
1%
1'
#2905000000
0%
0'
#2910000000
1%
1'
b10 4
b01000000000000000000000000000000001000000000000000000000000000000000 5
16
#2915000000
0%
0'
#2920000000
1%
1'
06
#2925000000
0%
0'
#2930000000
1%
1'
#2935000000
0%
0'
#2940000000
1%
1'
b1110 =
#2945000000
0%
0'
#2950000000
1%
1'
b100000000000000000000000000000000010000000000000000000000000000000000000 <
#2955000000
0%
0'
#2960000000
1%
1'
b10 3
#2965000000
0%
0'
#2970000000
1%
1'
b01000000000000000000000000000000001000000000000000000000000000000000 2
#2975000000
0%
0'
#2980000000
1%
1'
b10 /
b00010000000000000000000000000000000000000000000000000000000000000000 0
11
#2985000000
0%
0'
#2990000000
1%
1'
01
#2995000000
0%
0'
#3000000000
1%
1'
#3005000000
0%
0'
#3010000000
1%
1'
b0 3
#3015000000
0%
0'
#3020000000
1%
1'
b00010000000000000000000000000000001000000000000000000000000000000000 2
#3025000000
0%
0'
#3030000000
1%
1'
b0 /
b00010000000000000000000000000000001000000000000000000000000000000000 0
11
#3035000000
0%
0'
#3040000000
1%
1'
01
#3045000000
0%
0'
#3050000000
1%
1'
#3055000000
0%
0'
#3060000000
1%
1'
#3065000000
0%
0'
#3070000000
1%
1'
#3075000000
0%
0'
#3080000000
1%
1'
b1 3
#3085000000
0%
0'
#3090000000
1%
1'
b00010000000000000000000000000000000100000000000000000000000000000000 2
#3095000000
0%
0'
#3100000000
1%
1'
b1 /
b00010000000000000000000000000000000100000000000000000000000000000000 0
11
#3105000000
0%
0'
#3110000000
1%
1'
01
#3115000000
0%
0'
#3120000000
1%
1'
#3125000000
0%
0'
#3130000000
1%
1'
#3135000000
0%
0'
#3140000000
1%
1'
#3145000000
0%
0'
#3150000000
1%
1'
b0 C
1E
#3155000000
0%
0'
#3160000000
1%
1'
0E
#3165000000
0%
0'
#3170000000
1%
1'
b1 C
1E
#3175000000
0%
0'
#3180000000
1%
1'
0E
#3185000000
0%
0'
#3190000000
1%
1'
#3195000000
0%
0'
#3200000000
1%
1'
b10 =
#3205000000
0%
0'
#3210000000
1%
1'
b010000000000000000000000000000000001000000000000000000000000000000000000 <
#3215000000
0%
0'
#3220000000
1%
1'
b1 .
#3225000000
0%
0'
#3230000000
1%
1'
b00010000000000000000000000000000000100000000000000000000000000000000 -
#3235000000
0%
0'
#3240000000
1%
1'
#3245000000
0%
0'
#3250000000
1%
1'
#3255000000
0%
0'
#3260000000
1%
1'
b0 4
b00010000000000000000000000000000000100000000000000000000000000000000 5
16
#3265000000
0%
0'
#3270000000
1%
1'
06
#3275000000
0%
0'
#3280000000
1%
1'
#3285000000
0%
0'
#3290000000
1%
1'
b11 =
#3295000000
0%
0'
#3300000000
1%
1'
b010000000000000000000000000000000000000000000000000000000000000000000000 <
#3305000000
0%
0'
#3310000000
1%
1'
b0 .
#3315000000
0%
0'
#3320000000
1%
1'
b00010000000000000000000000000000001000000000000000000000000000000000 -
#3325000000
0%
0'
#3330000000
1%
1'
#3335000000
0%
0'
#3340000000
1%
1'
#3345000000
0%
0'
#3350000000
1%
1'
b1 4
b00010000000000000000000000000000001000000000000000000000000000000000 5
16
#3355000000
0%
0'
#3360000000
1%
1'
06
#3365000000
0%
0'
#3370000000
1%
1'
b00010000000000000000000000000000001000000000000000000000000000000000 2
#3375000000
0%
0'
#3380000000
1%
1'
b100 =
#3385000000
0%
0'
#3390000000
1%
1'
b010100110000100000000000000000000000000000000000000000000000000000000000 <
#3395000000
0%
0'
#3400000000
1%
1'
b10 4
b00110000100000000000000000000000000000000000000000000000000000000000 5
16
#3405000000
0%
0'
#3410000000
1%
1'
06
#3415000000
0%
0'
#3420000000
1%
1'
#3425000000
0%
0'
#3430000000
1%
1'
b101 =
#3435000000
0%
0'
#3440000000
1%
1'
b100000000000000000000000000000000010000000000000000000000000000000000000 <
#3445000000
0%
0'
#3450000000
1%
1'
b10 3
#3455000000
0%
0'
#3460000000
1%
1'
b00110000100000000000000000000000000000000000000000000000000000000000 2
#3465000000
0%
0'
#3470000000
1%
1'
#3475000000
0%
0'
#3480000000
1%
1'
b0 3
#3485000000
0%
0'
#3490000000
1%
1'
b00010000000000000000000000000000000100000000000000000000000000000000 2
#3495000000
0%
0'
#3500000000
1%
1'
#3505000000
0%
0'
#3510000000
1%
1'
b1 3
#3515000000
0%
0'
